bean\ScenarioDetails.class
bean\ReceiverAccount.class
application\ZipFiles.class
application\DropBoxUtils.class
bean\SenderAccount.class
utility\DataUtility.class
application\ExcelUtility.class
application\SendMailBySite.class
utility\Convert.class
application\SendMailBySite$1.class
application\AfterTest.class
